0,29,432,6,394,469,469,0,15,398,0,0,1,0
0,29,433,6,395,470,470,0,15,399,0,0,1,0
0,34,434,6,396,471,471,0,15,321,0,0,1,0
0,34,435,6,397,472,472,0,15,400,0,0,1,0
0,30,436,6,398,473,473,0,15,401,0,0,1,0
0,34,437,6,399,474,474,0,15,7,0,0,1,0
0,30,438,6,400,475,475,0,15,402,0,0,1,0
0,30,439,6,401,476,476,0,15,300,0,0,1,0
0,34,440,6,402,477,477,0,15,403,0,0,1,0
0,29,441,6,403,478,478,0,15,48,0,0,1,0
0,29,442,6,404,479,479,0,15,404,0,0,1,0
0,29,443,6,405,480,480,0,15,405,0,0,1,0
0,30,444,6,406,481,481,0,15,388,0,0,1,0
0,29,445,6,407,482,482,0,15,268,0,0,1,0
0,29,446,6,408,483,483,0,16,406,0,0,0,0
0,29,447,6,409,484,484,0,16,10,0,0,0,0
0,34,448,6,410,485,485,0,16,407,0,0,0,0
0,30,449,6,411,486,486,0,16,127,0,0,0,0
0,35,398,6,412,94,94,0,15,408,0,0,1,0
0,37,68,1,41,487,487,0,15,409,1,0,1,0
0,33,450,6,413,488,488,0,15,410,0,0,1,0
0,37,451,1,41,489,489,0,15,411,1,0,1,0
0,33,452,6,414,490,490,0,15,187,0,0,1,0
0,38,453,6,415,491,491,0,15,412,1,0,1,0
0,78,454,7,416,492,492,0,18,413,0,0,1,0
0,79,455,1,41,493,493,0,18,414,1,0,1,0
0,80,185,1,41,170,170,0,18,415,1,0,1,0
0,79,456,1,41,494,494,0,18,416,1,0,1,0
0,81,457,7,417,495,495,0,18,213,0,0,1,0
0,81,458,7,418,496,496,0,19,417,0,0,0,0
0,75,459,7,419,497,497,0,18,28,0,0,1,0
0,72,460,7,420,498,498,0,18,165,0,0,1,0
0,72,461,7,421,499,499,0,18,230,0,0,1,0
0,82,37,7,422,500,500,0,18,228,0,0,1,0
0,82,462,7,423,501,501,0,18,418,0,0,1,0
0,75,463,7,424,502,502,0,18,419,0,0,1,0
0,72,464,7,425,503,503,0,18,420,0,0,1,0
0,82,465,7,426,504,504,0,18,421,0,0,1,0
0,75,466,7,427,505,505,0,18,227,0,0,1,0
0,71,467,1,41,506,506,0,18,422,1,0,1,0
0,76,468,1,41,507,507,0,18,423,1,0,1,0
0,82,469,7,428,508,508,0,18,106,0,0,1,0
0,75,470,7,429,509,509,0,18,3,0,0,1,0
0,75,471,7,430,510,510,0,18,424,0,0,1,0
0,75,472,7,431,511,511,0,18,425,0,0,1,0
0,75,105,7,432,512,512,0,18,426,0,0,1,0
0,71,473,1,41,513,513,0,18,427,1,0,1,0
0,82,474,7,433,514,514,0,19,428,0,0,0,0
0,72,475,7,434,515,515,0,19,429,0,0,0,0
0,75,476,7,435,516,516,0,19,139,0,0,0,0
0,28,477,7,436,517,517,0,18,430,0,0,1,0
0,26,478,1,41,518,518,0,18,431,1,0,1,0
0,28,479,7,437,519,519,0,18,432,0,0,1,0
0,73,480,7,438,520,520,0,18,433,0,0,1,0
0,28,138,7,439,521,521,0,18,434,0,0,1,0
0,28,481,7,440,177,177,0,18,435,0,0,1,0
0,28,482,7,441,522,522,0,18,436,0,0,1,0
0,28,76,7,442,523,523,0,18,437,0,0,1,0
0,73,483,7,443,524,524,0,18,438,0,0,1,0
0,24,484,1,41,525,525,0,18,439,1,0,1,0
0,73,485,7,444,526,526,0,18,134,0,0,1,0
0,73,486,7,445,527,527,0,18,440,0,0,1,0
0,73,487,7,446,528,528,0,18,441,0,0,1,0
0,73,488,7,447,529,529,0,18,442,0,0,1,0
0,28,489,7,448,530,530,0,18,303,0,0,1,0
0,25,490,1,41,531,531,0,18,443,1,0,1,0
0,25,491,1,41,532,532,0,18,444,1,0,1,0
0,73,492,7,449,533,533,0,19,445,0,0,0,0
0,28,493,7,450,534,534,0,19,446,0,0,0,0
0,28,494,7,451,535,535,0,19,447,0,0,0,0
0,26,495,1,41,536,536,0,20,448,1,0,1,0
0,74,496,7,452,537,537,0,18,51,0,0,1,0
0,31,497,7,453,538,538,0,18,373,0,0,1,0
0,77,498,7,454,539,539,0,18,449,0,0,1,0
0,77,499,7,455,540,540,0,18,450,0,0,1,0
0,31,500,7,456,541,541,0,18,142,0,0,1,0
0,77,501,7,457,542,542,0,18,451,0,0,1,0
0,77,502,7,458,543,543,0,18,452,0,0,1,0
0,74,503,7,459,544,544,0,18,453,0,0,1,0
0,74,388,7,460,545,545,0,18,419,0,0,1,0
0,31,14,7,461,546,546,0,18,217,0,0,1,0
0,31,504,7,462,547,547,0,18,449,0,0,1,0
0,31,505,7,463,548,548,0,18,454,0,0,1,0
0,77,449,7,464,549,549,0,18,455,0,0,1,0
0,74,506,7,465,550,550,0,18,456,0,0,1,0
0,74,507,7,466,146,146,0,18,457,0,0,1,0
0,74,508,7,467,551,551,0,18,458,0,0,1,0
0,31,155,7,468,552,552,0,18,459,0,0,1,0
0,29,509,1,41,553,553,0,18,460,1,0,1,0
0,29,140,1,41,554,554,0,18,461,1,0,1,0
0,77,510,7,469,555,555,0,18,22,0,0,1,0
0,77,511,7,470,556,556,0,18,462,0,0,1,0
0,74,512,7,471,557,557,0,18,303,0,0,1,0
0,31,513,7,472,558,558,0,19,463,0,0,0,0
0,77,514,7,473,559,559,0,19,464,0,0,0,0
0,77,259,7,474,560,560,0,19,245,0,0,0,0
0,74,515,7,475,561,561,0,19,465,0,0,0,0
0,34,516,1,41,562,562,0,18,466,1,0,1,0
0,36,55,7,476,563,563,0,18,467,0,0,1,0
0,32,517,7,477,564,564,0,18,182,0,0,1,0
0,36,518,7,478,136,136,0,18,468,0,0,1,0
0,32,519,7,479,565,565,0,18,469,0,0,1,0
0,32,520,7,480,566,566,0,18,436,0,0,1,0
0,32,521,7,481,567,567,0,18,16,0,0,1,0
0,32,522,7,482,568,568,0,18,470,0,0,1,0
0,32,523,7,483,569,569,0,18,159,0,0,1,0
0,32,524,7,484,570,570,0,18,471,0,0,1,0
0,30,203,1,41,571,571,0,18,472,1,0,1,0
0,30,525,1,41,572,572,0,18,473,1,0,1,0
0,36,491,7,485,573,573,0,18,474,0,0,1,0
0,36,526,7,486,574,574,0,18,70,0,0,1,0
0,36,527,7,487,575,575,0,18,475,0,0,1,0
0,36,528,7,488,576,576,0,18,476,0,0,1,0
0,36,529,7,489,577,577,0,18,477,0,0,1,0
0,43,530,8,490,578,578,0,21,65,0,0,0,0
0,83,531,1,41,579,579,0,22,478,1,0,1,0
0,45,532,8,491,580,580,0,22,479,0,0,1,0
0,46,533,8,492,581,581,0,22,234,0,0,1,0
0,45,534,8,493,582,582,0,22,480,0,0,1,0
0,45,535,8,494,583,583,0,21,481,0,0,0,0
0,45,536,8,495,584,584,0,21,482,0,0,0,0
0,45,537,8,496,585,585,0,21,483,0,0,0,0
0,47,538,8,497,586,586,0,22,381,0,0,1,0
0,47,539,8,498,587,587,0,21,484,0,0,0,0
0,48,540,8,499,588,588,0,21,485,0,0,0,0
0,51,257,8,500,589,589,0,22,486,0,0,1,0
0,52,541,8,501,590,590,0,22,487,0,0,1,0
0,52,542,8,502,591,591,0,22,488,0,0,1,0
0,52,543,8,503,592,592,0,22,489,0,0,1,0
0,52,544,8,504,593,593,0,22,490,0,0,1,0
0,51,545,8,505,594,594,0,21,491,0,0,0,0
0,52,179,8,506,595,595,0,21,492,0,0,0,0
0,51,546,8,507,596,596,0,21,493,0,0,0,0
0,51,547,8,508,597,597,0,21,494,0,0,0,0
0,58,123,8,509,598,598,0,22,495,0,0,1,0
0,58,548,8,510,599,599,0,22,496,0,0,1,0
0,56,367,8,511,600,600,0,22,497,0,0,1,0
0,58,549,8,512,601,601,0,22,498,0,0,1,0
0,57,550,8,513,602,602,0,22,499,0,0,1,0
0,58,551,8,514,603,603,0,22,500,0,0,1,0
0,56,552,8,515,604,604,0,22,501,0,0,1,0
0,56,148,8,516,605,605,0,22,502,0,0,1,0
0,57,510,8,517,606,606,0,22,503,0,0,1,0
0,58,553,8,518,607,607,0,22,504,0,0,1,0
0,58,554,8,519,608,608,0,21,499,0,0,0,0
0,56,555,8,520,609,609,0,21,505,0,0,0,0
0,56,556,8,521,610,610,0,21,506,0,0,0,0
0,56,557,8,522,611,611,0,21,507,0,0,0,0
0,62,558,8,523,612,612,0,22,508,0,0,1,0
0,62,559,8,524,613,613,0,22,509,0,0,1,0
0,62,560,8,525,614,614,0,22,393,0,0,1,0
0,84,561,8,526,615,615,0,21,500,0,0,0,0
0,62,562,8,527,616,616,0,21,358,0,0,0,0
0,84,563,8,528,617,617,0,21,510,0,0,0,0
0,84,564,8,529,618,618,0,21,78,0,0,0,0
0,66,565,8,530,619,619,0,22,511,0,0,1,0
0,65,566,8,531,620,620,0,22,442,0,0,1,0
0,64,427,8,532,621,621,0,22,512,0,0,1,0
0,66,567,8,533,622,622,0,21,513,0,0,0,0
0,65,568,8,534,623,623,0,21,514,0,0,0,0
0,65,569,8,535,624,624,0,21,515,0,0,0,0
0,64,570,8,536,625,625,0,21,516,0,0,0,0
0,66,344,8,537,626,626,0,21,517,0,0,0,0
0,68,571,1,41,627,627,0,21,518,1,0,0,0
0,68,482,8,538,628,628,0,21,519,1,0,0,0
0,70,572,8,539,629,629,0,21,520,0,0,0,0
0,4,573,8,540,630,630,0,22,521,0,0,1,0
0,85,574,8,541,631,631,0,22,522,0,0,1,0
0,4,575,8,542,632,632,0,22,523,0,0,1,0
0,86,576,8,543,633,633,0,22,524,0,0,1,0
0,86,577,8,544,634,634,0,22,513,0,0,1,0
0,4,578,8,545,635,635,0,22,525,0,0,1,0
0,86,579,8,546,636,636,0,21,240,0,0,0,0
0,85,77,8,547,637,637,0,21,526,0,0,0,0
0,86,580,8,548,638,638,0,21,406,0,0,0,0
0,85,237,8,549,639,639,0,21,527,0,0,0,0
0,86,125,8,550,640,640,0,21,528,0,0,0,0
0,8,581,1,41,641,641,0,22,529,1,0,1,0
0,9,582,8,551,642,642,0,22,530,0,0,1,0
0,9,221,8,552,643,643,0,22,531,0,0,1,0
0,10,348,1,41,644,644,0,22,532,1,0,1,0
0,9,583,8,553,645,645,0,21,533,0,0,0,0
0,87,584,8,554,646,646,0,21,527,0,0,0,0
0,11,585,8,555,647,647,0,21,534,0,0,0,0
0,14,586,8,556,648,648,0,21,535,0,0,0,0
0,14,587,8,557,649,649,0,21,101,0,0,0,0
0,11,588,8,558,650,650,0,21,536,0,0,0,0
0,88,589,8,559,651,651,0,23,537,0,0,0,0
0,18,590,8,560,652,652,0,22,538,0,0,1,0
0,17,591,8,561,653,653,0,23,539,0,0,0,0
0,18,592,8,562,654,654,0,23,540,0,0,0,0
0,17,593,8,563,655,655,0,23,410,0,0,0,0
0,89,594,8,564,656,656,0,22,541,0,0,1,0
0,20,595,8,565,657,657,0,22,542,0,0,1,0
0,21,596,8,566,658,658,0,22,543,0,0,1,0
0,20,597,8,567,659,659,0,23,544,0,0,0,0
0,89,218,8,568,660,660,0,23,234,0,0,0,0
0,89,598,8,569,661,661,0,23,545,0,0,0,0
0,20,599,8,570,578,578,0,23,410,0,0,0,0
0,90,64,8,571,662,662,0,22,546,0,0,1,0
0,90,600,8,572,663,663,0,22,547,0,0,1,0
0,91,571,8,573,664,664,0,22,548,0,0,1,0
0,24,547,9,574,665,665,0,24,549,0,0,1,0
0,26,601,9,472,666,666,0,24,66,0,0,1,0
0,73,56,1,41,667,667,0,24,550,1,0,1,0
0,72,602,1,41,668,668,0,24,551,1,0,1,0
0,26,603,9,479,669,669,0,24,552,0,0,1,0
0,26,604,9,480,670,670,0,24,553,0,0,1,0
0,24,605,9,575,671,671,0,24,505,0,0,1,0
0,24,606,9,576,672,672,0,24,554,0,0,1,0
0,26,607,9,481,673,673,0,25,555,0,0,0,0
0,26,608,9,482,674,674,0,25,556,0,0,0,0
0,24,609,9,577,519,519,0,25,557,0,0,0,0
0,24,610,9,578,675,675,0,25,558,0,0,0,0
0,24,560,9,579,676,676,0,25,540,0,0,0,0
0,72,611,1,41,677,677,0,26,559,1,0,1,0
0,28,612,1,41,678,678,0,26,560,1,0,1,0
0,72,279,1,41,679,679,0,26,561,1,0,1,0
0,25,613,9,483,680,680,0,24,166,0,0,1,0
0,27,614,9,478,681,681,0,24,562,0,0,1,0
0,27,615,9,580,682,682,0,24,563,0,0,1,0
0,27,616,9,485,683,683,0,24,302,0,0,1,0
0,27,617,9,486,684,684,0,24,564,0,0,1,0
0,29,404,9,581,685,685,0,24,565,0,0,1,0
0,25,618,9,484,686,686,0,24,566,0,0,1,0
0,29,619,9,582,687,687,0,24,242,0,0,1,0
0,27,620,9,487,688,688,0,24,567,0,0,1,0
0,25,621,9,583,689,689,0,24,568,0,0,1,0
0,25,622,9,584,690,690,0,24,569,0,0,1,0
0,27,623,9,488,691,691,0,24,570,0,0,1,0
0,27,624,9,489,692,692,0,24,324,0,0,1,0
0,25,625,9,585,693,693,0,24,440,0,0,1,0
0,25,626,9,586,694,694,0,24,571,0,0,1,0
0,29,100,9,587,695,695,0,24,572,0,0,1,0
0,29,627,9,588,696,696,0,24,552,0,0,1,0
0,29,628,9,589,697,697,0,24,573,0,0,1,0
0,27,629,9,590,698,698,0,25,436,0,0,0,0
0,27,630,9,591,699,699,0,25,574,0,0,0,0
0,29,631,9,592,700,700,0,25,575,0,0,0,0
0,25,632,9,593,701,701,0,25,498,0,0,0,0
0,29,633,9,594,702,702,0,25,576,0,0,0,0
0,25,634,9,595,703,703,0,25,322,0,0,0,0
0,36,635,1,41,704,704,0,24,577,1,0,1,0
0,32,279,1,41,705,705,0,24,578,1,0,1,0
0,30,636,9,596,706,706,0,24,433,0,0,1,0
0,34,637,9,597,707,707,0,24,579,0,0,1,0
0,30,638,9,598,708,708,0,24,259,0,0,1,0
0,34,639,9,599,709,709,0,24,430,0,0,1,0
0,30,573,9,600,710,710,0,24,471,0,0,1,0
0,30,640,9,601,711,711,0,24,580,0,0,1,0
0,34,641,9,602,712,712,0,24,581,0,0,1,0
0,34,265,9,603,713,713,0,27,548,0,0,0,0
0,34,642,9,604,714,714,0,27,582,0,0,0,0
0,30,643,9,605,715,715,0,25,95,0,0,0,0
0,30,389,9,606,716,716,0,27,336,0,0,0,0
0,34,644,9,607,717,717,0,27,335,0,0,0,0
0,30,645,9,608,718,718,0,25,305,0,0,0,0
0,34,646,9,609,719,719,0,27,509,0,0,0,0
0,34,647,9,610,720,720,0,27,583,0,0,0,0
0,32,648,1,41,721,721,0,17,584,1,0,1,0
0,32,649,1,41,722,722,0,13,585,1,0,1,0
0,35,650,9,611,723,723,0,24,586,0,0,1,0
0,35,399,9,612,724,724,0,24,367,0,0,1,0
0,35,651,9,613,725,725,0,24,505,0,0,1,0
0,33,652,9,614,726,726,0,24,144,0,0,1,0
0,35,653,9,615,727,727,0,24,430,0,0,1,0
0,35,654,9,616,728,728,0,24,587,0,0,1,0
0,42,655,9,617,729,729,0,24,588,0,0,1,0
0,37,656,1,41,730,730,0,24,589,1,0,1,0
0,33,657,9,618,731,731,0,24,30,0,0,1,0
0,33,658,9,619,732,732,0,24,376,0,0,1,0
0,42,659,9,620,733,733,0,24,590,0,0,1,0
0,35,660,9,621,734,734,0,24,591,0,0,1,0
0,33,661,9,622,735,735,0,24,592,0,0,1,0
0,35,662,9,623,736,736,0,24,510,0,0,1,0
0,42,663,9,624,737,737,0,24,106,0,0,1,0
0,42,664,9,625,738,738,0,24,593,0,0,1,0
0,35,665,9,626,739,739,0,27,594,0,0,0,0
0,35,666,9,627,740,740,0,27,595,0,0,0,0
0,40,262,1,41,741,741,0,24,596,1,0,1,0
0,41,667,9,628,742,742,0,24,336,0,0,1,0
0,41,668,9,629,743,743,0,24,597,0,0,1,0
0,92,669,9,630,744,744,0,24,598,0,0,1,0
0,41,670,9,631,745,745,0,24,564,0,0,1,0
0,92,671,9,632,746,746,0,24,285,0,0,1,0
0,41,672,9,633,747,747,0,24,294,0,0,1,0
0,39,381,1,41,748,748,0,24,599,1,0,1,0
0,0,491,1,41,749,749,0,24,600,1,0,1,0
0,92,673,9,634,750,750,0,24,524,0,0,1,0
0,41,674,9,635,751,751,0,24,238,0,0,1,0
0,41,675,9,636,752,752,0,24,568,0,0,1,0
0,92,676,9,637,753,753,0,24,601,0,0,1,0
0,40,677,1,41,754,754,0,24,602,1,0,1,0
0,11,122,10,638,755,755,0,28,603,0,0,1,0
0,11,271,10,639,756,756,0,28,604,0,0,1,0
0,88,678,10,640,757,757,0,28,262,0,0,1,0
0,88,679,10,641,758,758,0,28,605,0,0,1,0
0,17,680,10,642,759,759,0,28,606,0,0,1,0
0,88,4,10,643,760,760,0,28,607,0,0,1,0
0,88,681,10,644,761,761,0,28,358,0,0,1,0
0,88,682,10,645,762,762,0,28,608,0,0,1,0
0,11,683,10,646,763,763,0,28,609,0,0,1,0
0,11,684,10,647,764,764,0,28,610,0,0,1,0
0,17,685,10,648,765,765,0,28,611,0,0,1,0
0,88,686,10,649,766,766,0,28,612,0,0,1,0
0,16,687,1,41,767,767,0,28,613,1,0,1,0
0,88,688,10,650,768,768,0,28,614,0,0,1,0
0,88,689,10,651,769,769,0,28,528,0,0,1,0
0,88,690,10,652,770,770,0,28,615,0,0,1,0
0,88,691,10,653,771,771,0,28,616,0,0,1,0
0,17,262,10,654,772,772,0,28,483,0,0,1,0
0,88,692,10,655,773,773,0,28,544,0,0,1,0
0,88,693,10,656,774,774,0,28,617,0,0,1,0
0,17,694,10,657,775,775,0,28,583,0,0,1,0
0,11,401,10,658,776,776,0,28,618,0,0,1,0
0,11,695,10,659,777,777,0,28,106,0,0,1,0
0,11,696,10,660,778,778,0,28,555,0,0,1,0
0,17,697,10,661,779,779,0,28,619,0,0,1,0
0,88,698,10,662,780,780,0,28,620,0,0,1,0
0,11,699,10,663,781,781,0,29,621,0,0,0,0
0,17,700,10,664,782,782,0,29,205,0,0,0,0
0,88,701,10,665,783,783,0,29,622,0,0,0,0
0,11,478,10,666,784,784,0,29,268,0,0,0,0
0,19,702,1,41,785,785,0,28,623,1,0,1,0
0,22,703,1,41,786,786,0,28,624,1,0,1,0
0,20,704,10,667,787,787,0,28,47,0,0,1,0
0,18,705,10,668,788,788,0,28,625,0,0,1,0
0,20,706,10,669,789,789,0,28,357,0,0,1,0
0,20,482,10,670,790,790,0,28,626,0,0,1,0
0,20,707,10,671,791,791,0,28,627,0,0,1,0
0,18,708,10,672,792,792,0,28,580,0,0,1,0
0,20,709,10,673,793,793,0,28,48,0,0,1,0
0,20,710,10,674,794,794,0,28,628,0,0,1,0
0,20,711,10,675,795,795,0,28,43,0,0,1,0
0,93,712,1,41,796,796,0,28,629,1,0,1,0
0,18,713,10,676,797,797,0,28,630,0,0,1,0
0,20,300,10,677,798,798,0,28,631,0,0,1,0
0,18,714,10,678,799,799,0,28,187,0,0,1,0
0,18,571,10,679,800,800,0,29,632,0,0,0,0
0,18,715,10,680,801,801,0,29,633,0,0,0,0
0,20,716,10,681,802,802,0,29,157,0,0,0,0
0,18,717,10,682,803,803,0,29,367,0,0,0,0
0,21,718,10,683,804,804,0,28,213,0,0,1,0
0,89,719,10,684,805,805,0,28,413,0,0,1,0
0,89,720,10,685,806,806,0,28,634,0,0,1,0
0,89,7,10,686,807,807,0,28,635,0,0,1,0
0,90,721,10,687,808,808,0,28,568,0,0,1,0
0,21,621,10,688,809,809,0,28,636,0,0,1,0
0,89,722,10,689,810,810,0,28,637,0,0,1,0
0,89,723,10,690,811,811,0,28,481,0,0,1,0
0,21,724,10,691,812,812,0,28,638,0,0,1,0
0,90,725,10,692,813,813,0,28,99,0,0,1,0
0,89,726,10,693,814,814,0,28,639,0,0,1,0
0,90,727,10,694,815,815,0,28,640,0,0,1,0
0,21,728,10,695,816,816,0,28,641,0,0,1,0
0,90,729,10,696,817,817,0,28,231,0,0,1,0
0,23,730,1,41,818,818,0,28,642,1,0,1,0
0,21,731,10,697,819,819,0,29,643,0,0,0,0
0,90,732,10,698,820,820,0,29,388,0,0,0,0
0,90,733,10,699,821,821,0,29,644,0,0,0,0
0,90,734,10,700,822,822,0,29,244,0,0,0,0
0,89,735,10,701,823,823,0,29,274,0,0,0,0
0,94,527,1,41,824,824,0,28,645,1,0,1,0
0,91,736,10,702,825,825,0,28,509,0,0,1,0
0,95,737,10,703,826,826,0,28,646,0,0,1,0
0,91,334,10,704,827,827,0,28,647,0,0,1,0
0,95,738,10,705,828,828,0,28,648,0,0,1,0
0,95,739,10,706,829,829,0,28,171,0,0,1,0
0,95,740,10,707,830,830,0,28,327,0,0,1,0
0,95,741,10,708,831,831,0,28,649,0,0,1,0
0,91,742,10,709,832,832,0,28,544,0,0,1,0
0,94,743,1,41,833,833,0,28,650,1,0,1,0
0,96,560,1,41,834,834,0,28,651,1,0,1,0
0,91,744,10,710,835,835,0,28,476,0,0,1,0
0,91,745,10,711,836,836,0,28,652,0,0,1,0
0,91,484,10,712,837,837,0,28,653,0,0,1,0
0,95,746,10,713,838,838,0,28,654,0,0,1,0
0,91,723,10,714,839,839,0,28,376,0,0,1,0
0,91,747,10,715,840,840,0,28,271,0,0,1,0
0,91,748,10,716,841,841,0,28,655,0,0,1,0
0,95,87,10,717,842,842,0,28,628,0,0,1,0
0,91,749,10,718,843,843,0,28,426,0,0,1,0
0,76,750,11,719,844,844,0,30,656,0,0,1,0
0,26,514,11,720,845,845,0,30,657,0,0,1,0
0,24,751,11,721,846,846,0,30,658,0,0,1,0
0,24,95,11,722,847,847,0,30,120,0,0,1,0
0,26,752,11,723,848,848,0,30,534,0,0,1,0
0,26,617,11,724,849,849,0,30,659,0,0,1,0
0,76,753,11,725,850,850,0,30,660,0,0,1,0
0,76,754,11,726,851,851,0,30,493,0,0,1,0
0,15,447,12,727,852,852,0,30,661,0,0,1,0
0,8,755,12,728,853,853,0,30,662,0,0,1,0
0,76,756,11,729,854,854,0,31,663,0,0,0,0
0,10,757,12,730,855,855,0,30,664,0,0,1,0
0,72,486,1,41,856,856,0,17,665,1,0,1,0
0,28,758,1,41,857,857,0,30,666,1,0,1,0
0,74,418,1,41,858,858,0,30,667,1,0,1,0
0,10,759,12,731,859,859,0,30,487,0,0,1,0
0,8,760,12,732,860,860,0,30,668,0,0,1,0
0,10,761,12,733,861,861,0,30,25,0,0,1,0
0,25,762,11,734,862,862,0,30,305,0,0,1,0
0,25,681,11,735,863,863,0,30,669,0,0,1,0
0,25,145,11,736,864,864,0,30,216,0,0,1,0
0,25,763,11,737,865,865,0,30,669,0,0,1,0
0,27,764,11,738,866,866,0,30,670,0,0,1,0
0,27,300,11,739,867,867,0,30,671,0,0,1,0
0,15,765,12,740,868,868,0,30,672,0,0,1,0
0,25,766,11,741,869,869,0,30,673,0,0,1,0
0,27,767,11,742,870,870,0,30,101,0,0,1,0
0,8,768,12,743,871,871,0,30,674,0,0,1,0
0,15,769,12,744,872,872,0,30,675,0,0,1,0
0,27,770,11,745,873,873,0,30,676,0,0,1,0
0,8,771,12,746,874,874,0,32,430,0,0,0,0
0,13,772,12,747,875,875,0,30,677,0,0,1,0
0,13,773,12,748,876,876,0,30,678,0,0,1,0
0,13,774,12,749,877,877,0,30,679,0,0,1,0
0,12,239,12,750,878,878,0,30,101,0,0,1,0
0,25,254,11,751,879,879,0,30,680,0,0,1,0
0,13,775,12,752,880,880,0,30,681,0,0,1,0
0,74,776,1,41,881,881,0,30,682,1,0,1,0
0,77,777,1,41,882,882,0,30,683,1,0,1,0
0,27,778,11,753,883,883,0,30,684,0,0,1,0
0,25,448,11,754,884,884,0,30,83,0,0,1,0
0,25,779,11,755,885,885,0,30,515,0,0,1,0
0,28,780,1,41,886,886,0,31,685,1,0,0,0
0,13,781,12,756,887,887,0,30,686,0,0,1,0
0,25,707,11,757,888,888,0,31,673,0,0,0,0
0,12,487,12,758,889,889,0,30,687,0,0,1,0
0,34,2,11,759,890,890,0,30,688,0,0,1,0
0,13,782,12,760,891,891,0,30,689,0,0,1,0
0,12,439,12,761,892,892,0,30,690,0,0,1,0
0,11,783,1,41,893,893,0,30,691,1,0,1,0
0,14,784,1,41,894,894,0,30,692,1,0,1,0
0,12,785,12,762,895,895,0,30,115,0,0,1,0
0,12,756,12,763,896,896,0,30,693,0,0,1,0
0,13,786,12,764,897,897,0,30,593,0,0,1,0
0,30,787,11,765,898,898,0,30,396,0,0,1,0
0,30,788,11,766,899,899,0,30,636,0,0,1,0
0,34,789,11,767,900,900,0,30,605,0,0,1,0
0,30,672,11,768,901,901,0,30,157,0,0,1,0
0,30,790,11,769,902,902,0,30,309,0,0,1,0
0,34,791,11,770,903,903,0,30,694,0,0,1,0
0,29,327,11,771,904,904,0,30,695,0,0,1,0
0,30,714,11,772,905,905,0,30,419,0,0,1,0
0,30,55,11,773,906,906,0,30,696,0,0,1,0
0,13,792,12,774,907,907,0,30,697,0,0,1,0
0,31,793,1,41,908,908,0,30,698,1,0,1,0
0,11,794,1,41,909,909,0,33,699,1,0,0,0
0,29,795,11,775,910,910,0,30,99,0,0,1,0
0,12,796,12,776,911,911,0,32,224,0,0,0,0
0,14,32,1,41,912,912,0,17,700,1,0,1,0
0,29,797,11,777,913,913,0,30,701,0,0,1,0
0,29,798,11,778,914,914,0,30,702,0,0,1,0
0,14,799,1,41,915,915,0,26,703,1,0,1,0
0,30,736,11,779,916,916,0,30,704,0,0,1,0
0,11,800,1,41,917,917,0,13,705,1,0,1,0
0,30,801,11,780,918,918,0,30,706,0,0,1,0
0,18,802,1,41,919,919,0,30,707,1,0,1,0
0,16,624,12,781,920,920,0,30,395,0,0,1,0
0,29,803,11,782,921,921,0,30,47,0,0,1,0
0,32,287,1,41,922,922,0,30,708,1,0,1,0
0,34,587,11,783,923,923,0,30,709,0,0,1,0
0,16,804,12,784,924,924,0,30,710,0,0,1,0
0,29,178,11,785,925,925,0,30,617,0,0,1,0
0,93,479,12,786,926,926,0,30,711,0,0,1,0
0,34,805,11,787,927,927,0,31,163,0,0,0,0
0,93,484,12,788,928,928,0,30,712,0,0,1,0
0,33,806,11,789,929,929,0,30,713,0,0,1,0
0,93,807,12,790,930,930,0,30,84,0,0,1,0
0,35,808,11,791,931,931,0,30,355,0,0,1,0
0,35,682,11,792,932,932,0,30,714,0,0,1,0
0,93,390,12,793,933,933,0,30,482,0,0,1,0
0,19,185,12,794,934,934,0,30,715,0,0,1,0
0,33,809,11,795,935,935,0,30,716,0,0,1,0
0,19,810,12,796,936,936,0,30,534,0,0,1,0
0,33,71,11,797,937,937,0,30,717,0,0,1,0
0,93,811,12,798,938,938,0,30,487,0,0,1,0
0,37,812,1,41,939,939,0,30,718,1,0,1,0
0,33,813,11,799,940,940,0,30,547,0,0,1,0
0,93,322,12,800,941,941,0,30,719,0,0,1,0
0,19,814,12,801,942,942,0,30,720,0,0,1,0
0,16,330,12,802,943,943,0,30,516,0,0,1,0
0,33,815,11,803,944,944,0,30,159,0,0,1,0
0,35,816,11,804,945,945,0,30,721,0,0,1,0
0,33,546,11,805,946,946,0,30,722,0,0,1,0
0,33,697,11,806,947,947,0,30,723,0,0,1,0
0,35,817,11,807,948,948,0,30,524,0,0,1,0
0,35,818,11,808,949,949,0,30,494,0,0,1,0
0,33,732,11,809,950,950,0,30,84,0,0,1,0
0,33,156,11,810,951,951,0,30,106,0,0,1,0
0,33,819,11,811,952,952,0,30,724,0,0,1,0
0,93,820,12,812,953,953,0,30,82,0,0,1,0
0,18,558,1,41,954,954,0,30,725,1,0,1,0
0,19,736,12,813,955,955,0,30,726,0,0,1,0
0,19,581,12,814,956,956,0,30,727,0,0,1,0
0,93,821,12,815,957,957,0,30,588,0,0,1,0
0,35,811,11,816,958,958,0,30,728,0,0,1,0
0,18,822,1,41,959,959,0,30,729,1,0,1,0
0,35,823,11,817,960,960,0,30,91,0,0,1,0
0,41,824,11,818,961,961,0,30,730,0,0,1,0
0,39,825,1,41,962,962,0,30,731,1,0,1,0
0,93,706,12,819,963,963,0,30,732,0,0,1,0
0,16,826,12,820,964,964,0,30,35,0,0,1,0
0,16,28,12,821,965,965,0,30,677,0,0,1,0
0,42,827,11,822,966,966,0,30,548,0,0,1,0
0,42,828,11,823,967,967,0,30,733,0,0,1,0
0,41,829,11,824,968,968,0,30,531,0,0,1,0
0,42,830,11,825,969,969,0,30,734,0,0,1,0
0,42,831,11,826,970,970,0,30,60,0,0,1,0
0,93,832,12,827,971,971,0,30,533,0,0,1,0
0,93,270,12,828,972,972,0,30,735,0,0,1,0
0,16,833,12,829,973,973,0,30,736,0,0,1,0
0,19,834,12,830,974,974,0,30,737,0,0,1,0
0,19,661,12,831,975,975,0,30,95,0,0,1,0
0,42,835,11,832,976,976,0,30,13,0,0,1,0
0,42,549,11,833,977,977,0,30,738,0,0,1,0
0,41,695,11,834,978,978,0,30,739,0,0,1,0
0,18,836,1,41,979,979,0,30,740,1,0,1,0
0,93,276,12,835,980,980,0,30,5,0,0,1,0
0,16,837,12,836,981,981,0,30,564,0,0,1,0
0,41,838,11,837,982,982,0,30,741,0,0,1,0
0,19,839,12,838,983,983,0,30,433,0,0,1,0
0,92,840,11,839,984,984,0,30,742,0,0,1,0
0,92,596,11,840,985,985,0,30,743,0,0,1,0
0,92,841,11,841,986,986,0,30,463,0,0,1,0
0,40,842,1,41,987,987,0,30,744,1,0,1,0
0,41,843,11,842,988,988,0,30,463,0,0,1,0
0,92,128,11,843,989,989,0,30,56,0,0,1,0
0,92,844,11,844,990,990,0,30,424,0,0,1,0
0,39,845,1,41,991,991,0,30,745,1,0,1,0
-2147483648,0,0,0,0,0,0,0,0,0,0,0,0,0
