0,0,0,0,0,0,0,0,0,0,0,0,0,0
0,1,1,0,1,1,1,0,0,1,0,0,0,0
0,2,2,0,2,2,2,0,1,2,0,0,1,0
0,2,3,0,3,3,3,0,1,3,0,0,1,0
0,3,4,0,4,4,4,0,1,4,0,0,1,0
0,2,5,0,5,5,5,0,1,5,0,0,1,0
0,2,6,0,6,6,6,0,1,6,0,0,1,0
0,2,7,0,7,7,7,0,1,7,0,0,1,0
0,3,8,0,8,8,8,0,1,8,0,0,1,0
0,2,9,0,9,9,9,0,1,9,0,0,1,0
0,2,10,0,10,10,10,0,1,10,0,0,1,0
0,3,11,0,11,11,11,0,1,11,0,0,1,0
0,3,12,0,12,12,12,0,1,12,0,0,1,0
0,3,13,0,13,13,13,0,1,13,0,0,1,0
0,3,14,0,14,14,14,0,1,14,0,0,1,0
0,3,15,0,15,15,15,0,1,15,0,0,1,0
0,2,16,0,16,16,16,0,1,16,0,0,1,0
0,3,17,0,17,17,17,0,1,17,0,0,1,0
0,2,18,0,18,18,18,0,1,18,0,0,1,0
0,2,19,0,19,19,19,0,1,1,0,0,1,0
0,3,20,0,20,20,20,0,1,19,0,0,1,0
0,2,21,0,21,21,21,0,1,20,0,0,1,0
0,3,22,0,22,22,22,0,1,21,0,0,1,0
0,3,23,0,23,23,23,0,1,22,0,0,1,0
0,3,24,0,24,24,24,0,1,23,0,0,1,0
0,3,25,0,25,25,25,0,1,24,0,0,1,0
0,3,26,0,26,26,26,0,1,25,0,0,1,0
0,3,27,0,27,27,27,0,1,26,0,0,1,0
0,3,28,0,28,28,28,0,1,27,0,0,1,0
0,2,29,0,29,29,29,0,1,28,0,0,1,0
0,2,30,0,30,30,30,0,1,29,0,0,1,0
0,3,31,0,31,31,31,0,1,30,0,0,1,0
0,3,32,0,32,32,32,0,1,31,0,0,1,0
0,3,33,0,33,33,33,0,1,32,0,0,1,0
0,2,24,0,34,34,34,0,1,33,0,0,1,0
0,3,34,0,35,35,35,0,1,34,0,0,1,0
0,2,35,0,36,36,36,0,1,35,0,0,1,0
0,2,36,0,37,37,37,0,1,36,0,0,1,0
0,2,37,0,38,38,38,0,1,37,0,0,1,0
0,2,38,0,39,39,39,0,1,38,0,0,1,0
0,3,39,0,40,40,40,0,1,39,0,0,1,0
0,4,40,1,41,41,41,0,2,40,1,0,1,0
0,4,41,1,41,42,42,0,2,41,1,0,1,0
0,4,42,1,41,43,43,0,2,42,1,0,1,0
0,5,43,2,42,44,44,0,2,43,0,0,1,0
0,5,44,2,43,45,45,0,2,38,0,0,1,0
0,5,45,2,44,46,46,0,2,44,0,0,1,0
0,5,46,2,45,47,47,0,2,45,0,0,1,0
0,5,47,2,46,48,48,0,2,46,0,0,1,0
0,5,48,2,47,49,49,0,2,47,0,0,1,0
0,5,49,2,48,50,50,0,2,48,0,0,1,0
0,5,50,2,49,51,51,0,2,49,0,0,1,0
0,5,51,2,50,52,52,0,2,50,0,0,1,0
0,6,52,2,51,53,53,0,2,51,0,0,1,0
0,4,53,1,41,54,54,0,2,52,1,0,1,0
0,5,54,2,52,55,55,0,2,53,0,0,1,0
0,5,55,2,53,56,56,0,2,54,0,0,1,0
0,6,56,2,54,57,57,0,2,55,0,0,1,0
0,5,57,2,55,58,58,0,2,37,0,0,1,0
0,7,58,2,56,59,59,0,3,56,0,0,0,0
0,7,59,2,57,60,60,0,3,57,0,0,0,0
0,7,60,2,58,61,61,0,3,58,0,0,0,0
0,7,61,2,59,62,62,0,3,59,0,0,0,0
0,7,62,2,60,63,63,0,3,60,0,0,0,0
0,8,63,2,61,64,64,0,2,61,0,0,1,0
0,9,64,1,41,65,65,0,2,62,1,0,1,0
0,10,65,2,62,66,66,0,2,63,0,0,1,0
0,9,66,1,41,67,67,0,2,64,1,0,1,0
0,10,67,2,63,68,68,0,3,65,0,0,0,0
0,10,68,2,64,69,69,0,3,66,0,0,0,0
0,8,69,2,65,70,70,0,3,67,0,0,0,0
0,11,70,1,41,71,71,0,2,68,1,0,1,0
0,12,71,2,66,72,72,0,4,69,0,0,1,0
0,12,72,2,67,73,73,0,4,70,0,0,1,0
0,12,73,2,68,74,74,0,4,71,0,0,1,0
0,13,74,2,69,75,75,0,4,72,0,0,1,0
0,12,75,2,70,76,76,0,4,73,0,0,1,0
0,12,76,2,71,77,77,0,4,74,0,0,1,0
0,13,77,2,72,78,78,0,4,75,0,0,1,0
0,13,78,2,73,79,79,0,4,76,0,0,1,0
0,11,79,1,41,80,80,0,2,77,1,0,1,0
0,13,80,2,74,81,81,0,4,70,0,0,1,0
0,13,81,2,75,82,82,0,4,78,0,0,1,0
0,11,82,1,41,83,83,0,2,79,1,0,1,0
0,14,83,1,41,84,84,0,2,80,1,0,1,0
0,13,8,2,76,85,85,0,4,81,0,0,1,0
0,12,84,2,77,86,86,0,4,82,0,0,1,0
0,12,85,2,78,87,87,0,4,71,0,0,1,0
0,12,86,2,79,88,88,0,4,83,0,0,1,0
0,13,87,2,80,89,89,0,4,84,0,0,1,0
0,13,88,2,81,90,90,0,4,55,0,0,1,0
0,13,89,2,82,91,91,0,4,85,0,0,1,0
0,15,90,2,83,92,92,0,3,25,0,0,0,0
0,11,91,1,41,93,93,0,5,86,1,0,0,0
0,16,92,2,84,94,94,0,4,87,0,0,1,0
0,17,93,1,41,95,95,0,2,88,1,0,1,0
0,16,94,2,85,96,96,0,4,89,0,0,1,0
0,16,95,2,86,97,97,0,4,90,0,0,1,0
0,16,96,2,87,98,98,0,4,91,0,0,1,0
0,17,97,1,41,99,99,0,2,92,1,0,1,0
0,18,98,1,41,100,100,0,2,93,1,0,1,0
0,19,99,2,88,101,101,0,4,94,0,0,1,0
0,16,100,2,89,102,102,0,4,95,0,0,1,0
0,16,101,2,90,103,103,0,4,96,0,0,1,0
0,19,102,2,91,104,104,0,4,97,0,0,1,0
0,16,103,2,92,105,105,0,4,98,0,0,1,0
0,16,104,2,93,106,106,0,4,99,0,0,1,0
0,19,105,2,94,107,107,0,4,48,0,0,1,0
0,19,106,2,95,108,108,0,4,100,0,0,1,0
0,16,107,2,96,109,109,0,4,101,0,0,1,0
0,19,108,2,97,110,110,0,4,102,0,0,1,0
0,19,109,2,98,111,111,0,4,103,0,0,1,0
0,16,110,2,99,112,112,0,4,104,0,0,1,0
0,19,111,2,100,113,113,0,4,105,0,0,1,0
0,16,112,2,101,114,114,0,4,106,0,0,1,0
0,16,113,2,102,115,115,0,4,107,0,0,1,0
0,19,114,2,103,116,116,0,4,108,0,0,1,0
0,19,115,2,104,117,117,0,3,109,0,0,0,0
0,20,116,1,41,118,118,0,2,110,1,0,1,0
0,20,117,1,41,119,119,0,2,111,1,0,1,0
0,21,118,1,41,120,120,0,2,112,1,0,1,0
0,22,119,2,105,121,121,0,4,100,0,0,1,0
0,21,120,1,41,122,122,0,2,113,1,0,1,0
0,23,121,2,106,123,123,0,4,114,0,0,1,0
0,23,122,2,107,124,124,0,4,115,0,0,1,0
0,20,123,1,41,125,125,0,2,116,1,0,1,0
0,23,124,2,108,126,126,0,4,51,0,0,1,0
0,23,125,2,109,127,127,0,4,117,0,0,1,0
0,20,126,1,41,128,128,0,2,118,1,0,1,0
0,22,127,2,110,129,129,0,4,119,0,0,1,0
0,22,128,2,111,130,130,0,4,120,0,0,1,0
0,22,129,2,112,131,131,0,4,121,0,0,1,0
0,24,130,3,113,132,132,0,6,122,0,0,1,0
0,24,131,3,114,133,133,0,7,123,0,0,0,0
0,24,132,3,115,134,134,0,7,124,0,0,0,0
0,25,133,3,116,135,135,0,6,125,0,0,1,0
0,26,134,3,117,136,136,0,6,126,0,0,1,0
0,25,135,3,118,137,137,0,6,18,0,0,1,0
0,27,136,3,119,138,138,0,6,127,0,0,1,0
0,25,137,3,120,139,139,0,6,128,0,0,1,0
0,28,138,1,41,140,140,0,8,129,1,0,1,0
0,27,139,3,121,141,141,0,6,125,0,0,1,0
0,27,140,3,122,142,142,0,6,130,0,0,1,0
0,28,141,1,41,143,143,0,8,131,1,0,1,0
0,26,142,3,123,144,144,0,6,132,0,0,1,0
0,26,143,3,124,145,145,0,6,133,0,0,1,0
0,25,144,3,125,146,146,0,6,23,0,0,1,0
0,26,145,3,126,147,147,0,6,134,0,0,1,0
0,27,146,3,127,148,148,0,6,135,0,0,1,0
0,26,147,3,128,149,149,0,6,136,0,0,1,0
0,27,148,3,129,150,150,0,6,137,0,0,1,0
0,25,149,3,130,151,151,0,7,100,0,0,0,0
0,25,150,3,131,152,152,0,7,138,0,0,0,0
0,27,151,3,132,153,153,0,7,17,0,0,0,0
0,25,152,3,133,154,154,0,7,139,0,0,0,0
0,25,153,3,134,155,155,0,7,140,0,0,0,0
0,27,154,3,135,156,156,0,7,55,0,0,0,0
0,29,155,3,136,157,157,0,6,141,0,0,1,0
0,29,156,3,137,158,158,0,6,142,0,0,1,0
0,29,157,3,138,159,159,0,6,143,0,0,1,0
0,30,158,3,139,160,160,0,6,144,0,0,1,0
0,30,159,3,140,161,161,0,6,145,0,0,1,0
0,30,160,3,141,162,162,0,6,146,0,0,1,0
0,29,161,3,142,163,163,0,6,147,0,0,1,0
0,31,162,1,41,164,164,0,8,148,1,0,1,0
0,30,163,3,143,165,165,0,6,149,0,0,1,0
0,29,164,3,144,166,166,0,6,150,0,0,1,0
0,30,165,3,145,167,167,0,6,151,0,0,1,0
0,30,166,3,146,168,168,0,6,152,0,0,1,0
0,30,167,3,147,169,169,0,6,153,0,0,1,0
0,31,168,1,41,170,170,0,8,154,1,0,1,0
0,32,169,1,41,171,171,0,8,155,1,0,1,0
0,29,170,3,148,172,172,0,7,156,0,0,0,0
0,33,171,3,149,173,173,0,6,157,0,0,1,0
0,34,172,3,150,174,174,0,6,56,0,0,1,0
0,34,173,3,151,175,175,0,6,158,0,0,1,0
0,34,174,3,152,176,176,0,6,159,0,0,1,0
0,35,175,3,153,177,177,0,6,130,0,0,1,0
0,36,176,1,41,178,178,0,6,160,1,0,1,0
0,37,177,1,41,179,179,0,6,161,1,0,1,0
0,34,178,3,154,180,180,0,6,162,0,0,1,0
0,33,179,3,155,181,181,0,6,163,0,0,1,0
0,34,180,3,156,182,182,0,6,164,0,0,1,0
0,35,181,3,157,183,183,0,6,165,0,0,1,0
0,34,182,3,158,184,184,0,6,166,0,0,1,0
0,37,183,1,41,185,185,0,6,167,1,0,1,0
0,33,17,3,159,186,186,0,6,26,0,0,1,0
0,34,184,3,160,187,187,0,6,168,0,0,1,0
0,34,185,3,161,188,188,0,6,169,0,0,1,0
0,34,186,3,162,189,189,0,6,170,0,0,1,0
0,33,187,3,163,190,190,0,6,171,0,0,1,0
0,35,188,3,164,191,191,0,6,4,0,0,1,0
0,35,189,3,165,192,192,0,6,172,0,0,1,0
0,37,190,1,41,193,193,0,6,173,1,0,1,0
0,33,191,3,166,194,194,0,6,174,0,0,1,0
0,38,192,1,41,195,195,0,6,175,1,0,1,0
0,39,193,1,41,196,196,0,6,176,1,0,1,0
0,40,194,1,41,197,197,0,6,177,1,0,1,0
0,39,195,1,41,198,198,0,6,178,1,0,1,0
0,41,196,3,167,199,199,0,6,179,0,0,1,0
0,42,197,3,168,200,200,0,6,180,0,0,1,0
0,42,198,3,169,201,201,0,6,181,0,0,1,0
0,41,199,3,170,202,202,0,6,182,0,0,1,0
0,38,200,1,41,203,203,0,6,183,1,0,1,0
0,40,201,1,41,204,204,0,6,184,1,0,1,0
0,38,202,1,41,205,205,0,6,185,1,0,1,0
0,41,203,3,171,206,206,0,6,117,0,0,1,0
0,41,204,3,172,207,207,0,6,186,0,0,1,0
0,41,205,3,173,208,208,0,6,187,0,0,1,0
0,42,206,3,174,209,209,0,6,188,0,0,1,0
0,42,207,3,175,210,210,0,6,189,0,0,1,0
0,42,208,3,176,211,211,0,6,190,0,0,1,0
0,38,209,1,41,212,212,0,6,191,1,0,1,0
0,40,210,1,41,213,213,0,6,192,1,0,1,0
0,40,211,1,41,214,214,0,6,193,1,0,1,0
0,42,212,3,177,215,215,0,6,194,0,0,1,0
0,42,213,3,178,216,216,0,9,195,0,0,0,0
0,42,214,3,179,217,217,0,9,14,0,0,0,0
0,42,215,3,180,218,218,0,9,196,0,0,0,0
0,1,216,1,41,219,219,0,6,197,1,0,1,0
0,43,217,3,181,220,220,0,6,33,0,0,1,0
0,44,218,3,182,221,221,0,6,198,0,0,1,0
0,45,198,4,183,222,222,0,10,199,0,0,0,0
0,45,219,4,184,223,223,0,10,200,0,0,0,0
0,46,220,4,185,224,224,0,10,201,0,0,0,0
0,47,221,4,186,225,225,0,11,202,0,0,1,0
0,48,222,4,187,226,226,0,11,203,0,0,1,0
0,49,223,4,188,227,227,0,11,204,0,0,1,0
0,49,224,4,189,228,228,0,11,205,0,0,1,0
0,49,225,4,190,229,229,0,11,206,0,0,1,0
0,50,169,1,41,230,230,0,11,207,1,0,1,0
0,49,226,4,191,231,231,0,11,208,0,0,1,0
0,49,227,4,192,232,232,0,11,209,0,0,1,0
0,50,228,1,41,233,233,0,11,210,1,0,1,0
0,48,229,4,193,234,234,0,11,211,0,0,1,0
0,49,225,4,194,235,235,0,11,44,0,0,1,0
0,47,230,4,195,236,236,0,11,212,0,0,1,0
0,48,231,4,196,237,237,0,11,213,0,0,1,0
0,47,217,4,197,238,238,0,11,214,0,0,1,0
0,47,232,4,198,239,239,0,10,55,0,0,0,0
0,49,233,4,199,240,240,0,10,215,0,0,0,0
0,51,234,4,200,241,241,0,11,216,0,0,1,0
0,52,235,4,201,242,242,0,11,217,0,0,1,0
0,52,29,4,202,243,243,0,11,218,0,0,1,0
0,52,236,4,203,244,244,0,11,219,0,0,1,0
0,53,237,1,41,245,245,0,11,220,1,0,1,0
0,51,238,4,204,246,246,0,11,221,0,0,1,0
0,51,239,4,205,247,247,0,11,222,0,0,1,0
0,54,240,1,41,248,248,0,11,223,1,0,1,0
0,51,241,4,206,249,249,0,11,224,0,0,1,0
0,52,242,4,207,250,250,0,11,225,0,0,1,0
0,52,243,4,208,251,251,0,10,159,0,0,0,0
0,55,244,1,41,252,252,0,11,226,1,0,1,0
0,56,245,4,209,253,253,0,11,227,0,0,1,0
0,57,209,4,210,254,254,0,11,228,0,0,1,0
0,58,246,4,211,255,255,0,11,229,0,0,1,0
0,57,247,4,212,256,256,0,11,230,0,0,1,0
0,56,248,4,213,257,257,0,11,231,0,0,1,0
0,59,249,1,41,258,258,0,11,232,1,0,1,0
0,56,250,4,214,259,259,0,11,233,0,0,1,0
0,56,251,4,215,260,260,0,11,85,0,0,1,0
0,58,252,4,216,261,261,0,11,234,0,0,1,0
0,58,253,4,217,262,262,0,11,235,0,0,1,0
0,58,254,4,218,263,263,0,11,236,0,0,1,0
0,58,255,4,219,264,264,0,11,237,0,0,1,0
0,58,256,4,220,265,265,0,11,238,0,0,1,0
0,57,257,4,221,266,266,0,11,239,0,0,1,0
0,57,258,4,222,267,267,0,11,240,0,0,1,0
0,58,259,4,223,268,268,0,10,25,0,0,0,0
0,56,260,4,224,269,269,0,10,241,0,0,0,0
0,57,261,4,225,270,270,0,10,242,0,0,0,0
0,58,262,4,226,271,271,0,10,238,0,0,0,0
0,57,263,4,227,272,272,0,10,243,0,0,0,0
0,57,174,4,228,273,273,0,10,244,0,0,0,0
0,56,264,4,229,274,274,0,10,245,0,0,0,0
0,60,265,1,41,275,275,0,11,246,1,0,1,0
0,61,266,1,41,276,276,0,11,247,1,0,1,0
0,62,267,4,230,277,277,0,11,1,0,0,1,0
0,60,268,1,41,278,278,0,11,248,1,0,1,0
0,63,269,1,41,279,279,0,11,249,1,0,1,0
0,63,270,1,41,280,280,0,11,250,1,0,1,0
0,62,188,4,231,281,281,0,11,251,0,0,1,0
0,61,271,1,41,282,282,0,10,252,1,0,0,0
0,62,272,4,232,283,283,0,10,253,0,0,0,0
0,62,273,4,233,284,284,0,10,254,0,0,0,0
0,62,274,4,234,285,285,0,10,255,0,0,0,0
0,64,275,4,235,286,286,0,11,256,0,0,1,0
0,65,149,4,236,287,287,0,11,257,0,0,1,0
0,66,276,4,237,288,288,0,11,258,0,0,1,0
0,66,277,4,238,289,289,0,11,259,0,0,1,0
0,64,278,4,239,290,290,0,11,260,0,0,1,0
0,64,279,4,240,291,291,0,11,261,0,0,1,0
0,65,280,4,241,292,292,0,11,262,0,0,1,0
0,65,281,4,242,293,293,0,11,263,0,0,1,0
0,66,282,4,243,294,294,0,11,264,0,0,1,0
0,65,283,4,244,295,295,0,11,265,0,0,1,0
0,66,284,4,245,296,296,0,10,266,0,0,0,0
0,64,285,4,246,297,297,0,10,125,0,0,0,0
0,67,286,1,41,298,298,0,10,267,1,0,0,0
0,66,283,4,247,299,299,0,10,268,0,0,0,0
0,68,287,1,41,300,300,0,11,269,1,0,1,0
0,69,288,4,248,301,301,0,11,11,0,0,1,0
0,70,289,4,249,302,302,0,11,270,0,0,1,0
0,69,290,4,250,303,303,0,11,271,0,0,1,0
0,69,291,4,251,304,304,0,11,272,0,0,1,0
0,69,292,4,252,305,305,0,11,273,0,0,1,0
0,70,293,4,253,306,306,0,11,274,0,0,1,0
0,70,294,4,254,307,307,0,11,275,0,0,1,0
0,69,295,4,255,308,308,0,11,264,0,0,1,0
0,69,296,4,256,309,309,0,11,276,0,0,1,0
0,70,297,4,257,310,310,0,11,75,0,0,1,0
0,4,298,4,258,311,311,0,11,30,0,0,1,0
0,4,299,4,259,312,312,0,11,277,0,0,1,0
0,4,300,4,260,313,313,0,11,278,0,0,1,0
0,7,292,1,41,314,314,0,11,279,1,0,1,0
0,71,301,5,261,315,315,0,12,280,0,0,0,0
0,72,302,1,41,316,316,0,13,281,1,0,1,0
0,73,303,1,41,317,317,0,14,282,1,0,1,0
0,73,304,1,41,318,318,0,14,283,1,0,1,0
0,73,305,1,41,319,319,0,14,284,1,0,1,0
0,25,306,5,262,320,320,0,14,4,0,0,1,0
0,26,307,5,263,321,321,0,14,277,0,0,1,0
0,25,308,5,264,322,322,0,14,285,0,0,1,0
0,26,309,5,265,323,323,0,14,286,0,0,1,0
0,25,310,5,266,324,324,0,14,21,0,0,1,0
0,26,311,5,267,325,325,0,14,287,0,0,1,0
0,25,312,5,268,326,326,0,14,288,0,0,1,0
0,25,190,5,269,327,327,0,14,289,0,0,1,0
0,26,313,5,270,328,328,0,14,290,0,0,1,0
0,26,314,5,271,329,329,0,14,291,0,0,1,0
0,25,315,5,272,330,330,0,14,292,0,0,1,0
0,25,316,5,273,331,331,0,14,293,0,0,1,0
0,25,317,5,274,332,332,0,14,294,0,0,1,0
0,25,318,5,275,333,333,0,14,295,0,0,1,0
0,25,319,5,276,334,334,0,14,296,0,0,1,0
0,25,320,5,277,335,335,0,14,297,0,0,1,0
0,25,321,5,278,336,336,0,14,263,0,0,1,0
0,25,15,5,279,337,337,0,14,298,0,0,1,0
0,25,322,5,280,338,338,0,12,299,0,0,0,0
0,29,323,5,281,339,339,0,14,300,0,0,1,0
0,27,324,5,282,340,340,0,14,186,0,0,1,0
0,30,325,5,283,341,341,0,14,301,0,0,1,0
0,29,326,5,284,342,342,0,14,60,0,0,1,0
0,29,327,5,285,343,343,0,14,302,0,0,1,0
0,30,328,5,286,344,344,0,14,303,0,0,1,0
0,27,329,5,287,345,345,0,14,304,0,0,1,0
0,27,330,5,288,346,346,0,14,305,0,0,1,0
0,30,331,5,289,347,347,0,14,186,0,0,1,0
0,29,332,5,290,348,348,0,14,306,0,0,1,0
0,31,333,1,41,349,349,0,14,307,1,0,1,0
0,29,334,5,291,350,350,0,14,251,0,0,1,0
0,27,335,5,292,351,351,0,14,308,0,0,1,0
0,27,336,5,293,352,352,0,14,309,0,0,1,0
0,27,337,5,294,353,353,0,14,274,0,0,1,0
0,74,338,1,41,354,354,0,14,310,1,0,1,0
0,27,145,5,295,355,355,0,14,311,0,0,1,0
0,30,339,5,296,356,356,0,14,312,0,0,1,0
0,27,340,5,297,357,357,0,14,1,0,0,1,0
0,27,341,5,298,358,358,0,14,313,0,0,1,0
0,30,342,5,299,359,359,0,14,114,0,0,1,0
0,29,343,5,300,360,360,0,14,314,0,0,1,0
0,30,344,5,301,361,361,0,14,315,0,0,1,0
0,30,345,5,302,362,362,0,14,316,0,0,1,0
0,32,346,1,41,363,363,0,14,317,1,0,1,0
0,37,347,1,41,364,364,0,14,318,1,0,1,0
0,36,348,1,41,365,365,0,14,319,1,0,1,0
0,32,349,1,41,366,366,0,14,320,1,0,1,0
0,34,134,5,303,367,367,0,14,321,0,0,1,0
0,34,184,5,304,368,368,0,14,322,0,0,1,0
0,35,108,5,305,369,369,0,14,323,0,0,1,0
0,35,350,5,306,370,370,0,14,324,0,0,1,0
0,35,351,5,307,371,371,0,14,325,0,0,1,0
0,34,259,5,308,372,372,0,14,326,0,0,1,0
0,34,352,5,309,373,373,0,14,327,0,0,1,0
0,35,353,5,310,374,374,0,14,328,0,0,1,0
0,35,354,5,311,375,375,0,14,329,0,0,1,0
0,34,355,5,312,376,376,0,14,57,0,0,1,0
0,32,356,1,41,377,377,0,14,330,1,0,1,0
0,34,357,5,313,378,378,0,14,331,0,0,1,0
0,35,16,5,314,379,379,0,14,332,0,0,1,0
0,34,358,5,315,380,380,0,14,333,0,0,1,0
0,34,359,5,316,381,381,0,14,84,0,0,1,0
0,35,360,5,317,382,382,0,14,334,0,0,1,0
0,35,295,5,318,383,383,0,12,335,0,0,0,0
0,33,361,5,319,384,384,0,14,336,0,0,1,0
0,42,245,5,320,385,385,0,14,337,0,0,1,0
0,33,362,5,321,386,386,0,14,338,0,0,1,0
0,42,145,5,322,387,387,0,14,85,0,0,1,0
0,40,363,1,41,388,388,0,14,339,1,0,1,0
0,41,364,5,323,389,389,0,14,340,0,0,1,0
0,33,365,5,324,390,390,0,14,341,0,0,1,0
0,33,366,5,325,391,391,0,14,342,0,0,1,0
0,42,367,5,326,392,392,0,14,157,0,0,1,0
0,33,368,5,327,393,393,0,14,147,0,0,1,0
0,33,369,5,328,394,394,0,14,343,0,0,1,0
0,40,370,1,41,395,395,0,14,344,1,0,1,0
0,41,371,5,329,396,396,0,14,201,0,0,1,0
0,41,372,5,330,397,397,0,14,345,0,0,1,0
0,42,373,5,331,398,398,0,14,346,0,0,1,0
0,33,104,5,332,399,399,0,14,347,0,0,1,0
0,33,300,5,333,400,400,0,14,348,0,0,1,0
0,33,374,5,334,401,401,0,14,334,0,0,1,0
0,33,375,5,335,402,402,0,14,349,0,0,1,0
0,33,376,5,336,403,403,0,14,350,0,0,1,0
0,42,377,5,337,404,404,0,14,251,0,0,1,0
0,75,378,1,41,405,405,0,15,351,1,0,1,0
0,71,379,6,338,406,406,0,16,352,0,0,0,0
0,26,380,6,339,407,407,0,15,353,0,0,1,0
0,26,381,6,340,408,408,0,15,354,0,0,1,0
0,24,8,6,341,409,409,0,15,355,0,0,1,0
0,26,382,6,342,410,410,0,15,356,0,0,1,0
0,26,383,6,343,411,411,0,15,135,0,0,1,0
0,76,384,6,344,412,412,0,15,357,0,0,1,0
0,24,96,6,345,413,413,0,15,358,0,0,1,0
0,24,385,6,346,414,414,0,15,359,0,0,1,0
0,24,386,6,347,415,415,0,15,38,0,0,1,0
0,24,387,6,348,416,416,0,15,313,0,0,1,0
0,73,388,1,41,417,417,0,15,360,1,0,1,0
0,24,389,6,349,418,418,0,15,361,0,0,1,0
0,26,390,6,350,419,419,0,15,362,0,0,1,0
0,26,391,6,351,420,420,0,15,363,0,0,1,0
0,24,392,6,352,421,421,0,15,364,0,0,1,0
0,24,393,6,353,422,422,0,15,45,0,0,1,0
0,76,394,6,354,423,423,0,15,365,0,0,1,0
0,76,395,6,355,424,424,0,15,366,0,0,1,0
0,26,396,6,356,425,425,0,15,179,0,0,1,0
0,26,397,6,357,426,426,0,15,17,0,0,1,0
0,24,398,6,358,427,427,0,15,137,0,0,1,0
0,26,399,6,359,428,428,0,16,367,0,0,0,0
0,24,400,6,360,429,429,0,16,368,0,0,0,0
0,26,401,6,361,430,430,0,16,369,0,0,0,0
0,76,402,6,362,431,431,0,16,370,0,0,0,0
0,24,403,6,363,432,432,0,16,371,0,0,0,0
0,76,404,6,364,433,433,0,16,372,0,0,0,0
0,26,405,6,365,434,434,0,16,71,0,0,0,0
0,26,406,6,366,435,435,0,16,373,0,0,0,0
0,76,407,6,367,436,436,0,16,374,0,0,0,0
0,73,408,1,41,437,437,0,17,375,1,0,1,0
0,27,409,6,368,438,438,0,15,376,0,0,1,0
0,25,410,6,369,439,439,0,15,117,0,0,1,0
0,25,411,6,370,440,440,0,15,377,0,0,1,0
0,74,412,1,41,441,441,0,15,378,1,0,1,0
0,25,413,6,371,442,442,0,15,379,0,0,1,0
0,27,414,6,372,443,443,0,15,380,0,0,1,0
0,27,41,6,373,444,444,0,15,357,0,0,1,0
0,25,415,6,374,445,445,0,15,381,0,0,1,0
0,25,168,6,375,446,446,0,15,71,0,0,1,0
0,28,348,1,41,447,447,0,15,382,1,0,1,0
0,77,416,1,41,448,448,0,15,383,1,0,1,0
0,27,417,6,376,127,127,0,15,122,0,0,1,0
0,77,418,1,41,449,449,0,15,384,1,0,1,0
0,27,419,6,377,450,450,0,15,260,0,0,1,0
0,27,165,6,378,451,451,0,15,91,0,0,1,0
0,25,69,6,379,452,452,0,15,364,0,0,1,0
0,27,410,6,380,453,453,0,15,385,0,0,1,0
0,74,80,1,41,454,454,0,15,386,1,0,1,0
0,25,420,6,381,455,455,0,16,387,0,0,0,0
0,27,421,6,382,456,456,0,16,388,0,0,0,0
0,27,422,6,383,457,457,0,16,107,0,0,0,0
0,25,16,6,384,458,458,0,16,389,0,0,0,0
0,25,423,6,385,459,459,0,16,390,0,0,0,0
0,28,424,1,41,460,460,0,17,391,1,0,1,0
0,34,425,6,386,461,461,0,15,392,0,0,1,0
0,29,426,6,387,462,462,0,15,393,0,0,1,0
0,30,368,6,388,463,463,0,15,347,0,0,1,0
0,30,427,6,389,464,464,0,15,394,0,0,1,0
0,30,428,6,390,465,465,0,15,395,0,0,1,0
-2147483648,0,0,0,0,0,0,0,0,0,0,0,0,0
